{
    "PuiChing_P": {
        "PLC_14L": {
            "client_id": "PLC_14L",
            "client_name": "FT1A-B40RC",
            "client_type": "PLC",
            "ip_addr": "10.0.223.207",
            "mac": "ff:ff:ff:ff:ff:ff",
            "zones": {
                "K14-1": {
                    "zoneId": "K14-1",
                    "tower": "K",
                    "floor": "14",
                    "desc": "演講廳",
                    "mqtt_tag": "/TowerK/Floor14/K14-1",
                    "default_id": "ruleB",
                    "appliances": {
                        "0": {
                            "appl_index": 0,
                            "appl_name": "燈光區0",
                            "appl_type": "燈光區"
                        },
                        "1": {
                            "appl_index": 1,
                            "appl_name": "燈光區1",
                            "appl_type": "燈光區"
                        },
                        "4": {
                            "appl_index": 4,
                            "appl_name": "燈光區2",
                            "appl_type": "燈光區"
                        },
                        "5": {
                            "appl_index": 5,
                            "appl_name": "燈光區3",
                            "appl_type": "燈光區"
                        }
                    }
                },
                "K14-2": {
                    "zoneId": "K14-2",
                    "tower": "K",
                    "floor": "14",
                    "desc": "多功能室",
                    "mqtt_tag": "/TowerK/Floor14/K14-2",
                    "default_id": "ruleC",
                    "appliances": {
                        "2": {
                            "appl_index": 2,
                            "appl_name": "燈光區0",
                            "appl_type": "燈光區"
                        },
                        "3": {
                            "appl_index": 3,
                            "appl_name": "燈光區1",
                            "appl_type": "燈光區"
                        },
                        "6": {
                            "appl_index": 6,
                            "appl_name": "燈光區2",
                            "appl_type": "燈光區"
                        },
                        "7": {
                            "appl_index": 7,
                            "appl_name": "燈光區3",
                            "appl_type": "燈光區"
                        },
                        "8": {
                            "appl_index": 8,
                            "appl_name": "燈光區4",
                            "appl_type": "燈光區"
                        },
                        "9": {
                            "appl_index": 9,
                            "appl_name": "燈光區5",
                            "appl_type": "燈光區"
                        },
                        "10": {
                            "appl_index": 10,
                            "appl_name": "燈光區6",
                            "appl_type": "燈光區"
                        },
                        "11": {
                            "appl_index": 11,
                            "appl_name": "燈光區7",
                            "appl_type": "燈光區"
                        },
                        "12": {
                            "appl_index": 12,
                            "appl_name": "燈光區8",
                            "appl_type": "燈光區"
                        },
                        "13": {
                            "appl_index": 13,
                            "appl_name": "燈光區9",
                            "appl_type": "燈光區"
                        },
                        "14": {
                            "appl_index": 14,
                            "appl_name": "燈光區10",
                            "appl_type": "燈光區"
                        },
                        "15": {
                            "appl_index": 15,
                            "appl_name": "燈光區11",
                            "appl_type": "燈光區"
                        }
                    }
                }
            }
        }
    }
}