{
    "A6-1": {
        "tower": "A",
        "floor": "6",
        "desc": "學生活動中心, 6/F, Block A",
        "mqtt_tag": "/TowerA/Floor6/A6-1"
    },
    "A6-2": {
        "tower": "A",
        "floor": "6",
        "desc": "樂器練習室/多功能室, 6/F, Block A",
        "mqtt_tag": "/TowerA/Floor6/A6-2"
    },
    "K5-1": {
        "tower": "K",
        "floor": "5",
        "desc": "體育館, 5/F, Block K",
        "mqtt_tag": "/TowerK/Floor5/K5-1"
    },
    "K5-2": {
        "tower": "K",
        "floor": "5",
        "desc": "體育館, 5/F, Block K",
        "mqtt_tag": "/TowerK/Floor5/K5-2"
    },
    "K6-1": {
        "tower": "K",
        "floor": "6",
        "desc": "乒乓球場, 6/F, Block K",
        "mqtt_tag": "/TowerK/Floor6/K6-1"
    }
}